%YAML 1.1
%TAG !u! tag:unity3d.com,2011:
--- !u!114 &11400000
MonoBehaviour:
  m_ObjectHideFlags: 0
  m_CorrespondingSourceObject: {fileID: 0}
  m_PrefabInstance: {fileID: 0}
  m_PrefabAsset: {fileID: 0}
  m_GameObject: {fileID: 0}
  m_Enabled: 1
  m_EditorHideFlags: 0
  m_Script: {fileID: 11500000, guid: af379cef11a84619afae172b00e37207, type: 3}
  m_Name: GrimReaperConfig
  m_EditorClassIdentifier: 
  _health: 200
  _speed: 2
  _damage: 150
  _view: {fileID: -2776316351487295223, guid: e96574513dcbcab4fb0d28acb1b095f6, type: 3}
  _dieFXRef: {fileID: 19882722, guid: 557d199a6dc5c384c9310c0f11e2f8aa, type: 3}
